Tidying the 2019 Kenyan Census - Rohan Alexander
…
                     "Homa Bay",
                     "Isiolo",
                     "Kiambu",
                     "Machakos",
                     "Makueni",
                     "Samburu",
                     "Siaya",
                     "Tana River",
                     "Vihiga",
                     "West Pokot")
         ) %>% 
  select(area, page) %>% 
  distinct()

## # A tibble: 24 x 2
##    area        page
##    <chr>      <int>
##  1 Samburu       42
##  2 Tana River    53
##  3 Tana River    56
##  4 Garissa       65
##  5 Garissa       69
##  6 Isiolo        98
##  7 Isiolo       100
##  8 Machakos     149
##  9 Machakos     154
## 10 Makueni      159
## # … with 14 more rows
…
